{
  "TST": {
    "appEnabled": "true",
    "appEoL": "false",
    "appName": "APP",
    "data.encrypted": "@@true@@",
    "data.level": "customer",
    "data.masked": "false",
    "data.region": "southamerica-west",
    "env.active": "false",
    "env.core.enabled": "true",
    "env.core.install.path": "/opt/SWEAGLE",
    "env.core.logging.file": "/opt/SWEAGLE/logs/sweagl_core.log",
    "env.core.server.port": "8090",
    "env.core.tracking.file": "/opt/SWEAGLE/logs/sweagl_core.log",
    "env.core.url": "http://localhost",
    "env.dataloader.install.path": "/opt/SWEAGLE",
    "env.DataMasked": "",
    "env.db.host": "localhost",
    "env.db.port": "3306",
    "env.db.schema": "md_test",
    "env.db.username": "mdm_user",
    "env.db.userpassword": "Password123",
    "env.edge.install.path": "/opt/SWEAGLE",
    "env.edge.logging.file": "/opt/SWEAGLE/logs/sweagle_edge.log",
    "env.edge.secure.enabled": "false",
    "env.edge.server.port": "89",
    "env.elasticsearch.cluster-name": "SWEAGLE_cluster",
    "env.elasticsearch.enabledAtStartup": "true",
    "env.elasticsearch.port": "9300",
    "env.elasticsearch.url": "localhost",
    "env.Enabled": "true",
    "env.host.url": "http://demo1.FinTrade.com",
    "env.kibana.port": "8080",
    "env.kibana.url": "localhost",
    "env.LBMethod": "ipHash",
    "env.loadBalancedEnabled": "false",
    "env.name": "helllo",
    "env.owner.email": "release.mgmt@sweagle.com",
    "env.owner.team": "release management",
    "env.type": "demo",
    "env.url": "www.sweagle.com/helloworld",
    "env.Url": "http://testing.FinTrade.com",
    "env.vault.enabled": "false",
    "env.vault.scheme": "",
    "env.vault.token": "869cd5f1-18f1-0e5f-5561-21e17ad28f73",
    "env.zuul.routes.core.path": "/**",
    "env.zuul.routes.core.url": "http://localhost:8088",
    "env.zuul.routes.kibana.enabled": "true",
    "env.zuul.routes.kibana.path": "/kibana/**",
    "env.zuul.routes.kibana.url": "http://localhost:5601",
    "envName": "TESTING",
    "envUrl": "http://testing.FinTrade.com",
    "featureToggle.externalTemplates": "false",
    "featureToggle.incrementalDataLoading": "true",
    "featureToggle.templateBasedLoading": "true",
    "host": "Dev-lv-2",
    "info.loglevel": "4",
    "network.zone": "management",
    "settings.dynamicScaling": "false",
    "settings.envLoadBalancedEnabled": "false",
    "usageLevel": "nonProduction",
    "Version": "1.0"
  }
}